Name,age,phone_number,company,building_code,address
Layne,66,(482) 387-6522,Armstrong Armstrong and Armstrong,165,East London
Buck,54,552.147.8377,Corwin Corwin and Corwin,3930,Willmouth
Clarabelle,46,1-756-661-8030,Cummings-Cummings,0892,Dietrichberg
Terrence,78,(962) 582-2973,Volkman and Sons,221,East Shannon
Stuart,44,987.795.6707,Romaguera-Romaguera,027,Port Koreyfort
Chandler,19,1-543-305-3563,Wyman Wyman and Wyman,8003,Kayceeville
Ashlee,28,(806) 402-9189,Abernathy Abernathy and Abernathy,526,North Adonis
Dixie,25,473.455.2836,Windler Inc,331,Fredericshire
Jovanny,65,1-139-695-5783,Herman Group,8640,Annetteview
Betty,78,(152) 272-5867,Abbott Abbott and Abbott,7586,Lamonthaven
Tyreek,42,1-795-543-8096,McDermott Group,22350,Braxtonfort
Sean,30,1-232-001-5611,Schimmel Schimmel and Schimmel,80561,West Jacksonshire
Brett,27,1-654-373-8426,Lehner-Lehner,7459,East Elwinville
Violette,74,1-166-716-5468,Carroll Carroll and Carroll,73336,Danielside
Reece,55,931-009-8450,Hilpert Group,9042,Gerlachstad
Roger,73,1-267-763-3674,Lemke Lemke and Lemke,8786,New Hadleyport
Nicolas,33,(858) 812-8484,O'Conner O'Conner and O'Conner,68839,Schmidthaven
Jarod,26,1-977-373-7055,Marvin-Marvin,037,Cathrineview
Roderick,26,1-358-122-9301,Kling Inc,291,Andrewburgh
Rahsaan,72,342.002.5362,Bernhard Group,886,Juvenalburgh
Lisandro,67,(276) 805-2291,Feil Feil and Feil,64744,McGlynnshire
Lyda,47,1-123-231-2211,Baumbach-Baumbach,28047,Lake Lucienne
Carli,26,899.913.4732,Fadel Fadel and Fadel,6871,Parkermouth
Edwardo,20,331.756.7827,Sawayn Sawayn and Sawayn,0689,East Zella
Hailey,46,(437) 565-9255,Wyman Wyman and Wyman,385,East Angelaland
Bernadine,45,1-904-781-8665,Champlin-Champlin,661,Douglasberg
Mona,58,1-491-498-6475,Streich Streich and Streich,643,Deloresbury
Melissa,39,1-361-584-2580,Graham Graham and Graham,534,Toniton
Kenyon,28,631.170.2290,Watsica LLC,0500,Port Gudrun
Kamron,61,436-816-8057,Grady-Grady,624,Wolfburgh
Carolanne,36,1-160-137-4332,Kulas-Kulas,8524,Lake Shaniachester
Leland,74,265.500.1093,Roberts Roberts and Roberts,1257,Lake Kasandra
Waldo,43,1-641-130-5695,Beatty Beatty and Beatty,4600,O'Connellfort
John,21,827.068.9581,Wisozk LLC,6629,Doyleberg
Vidal,72,557-158-9522,Collins-Collins,5878,Kristyshire
Marcel,34,887.906.1643,Bergnaum LLC,34591,Jalenchester
Porter,28,679-894-4343,Hettinger-Hettinger,684,New Mariehaven
Judah,57,375-881-8359,Friesen Friesen and Friesen,21537,North Wadeburgh
Broderick,63,1-603-598-3672,Dach Dach and Dach,4772,South Dennisbury
Kelly,76,213-915-2490,Kling-Kling,6139,Port Marionmouth
Jeanie,69,1-406-052-7021,Gleichner-Gleichner,883,West Catharinetown
Tristin,74,(424) 235-3984,Volkman-Volkman,473,Estellbury
Candice,35,1-414-077-0198,O'Hara O'Hara and O'Hara,4835,Verniemouth
Hugh,53,214-421-5498,Hackett Hackett and Hackett,0890,North Bailee
Louie,64,801.495.7472,Kuhn-Kuhn,561,Wymanberg
Gabriella,35,341-727-7515,Hauck Hauck and Hauck,8213,New Hilario
Lafayette,18,(524) 007-8280,Rolfson Group,8738,West Leanne
Laurie,57,976-465-1160,Reilly Reilly and Reilly,672,Lake Heloise
Hailey,46,196-275-0347,Krajcik Inc,518,O'Reillychester
Norwood,33,1-224-605-3977,Stracke Stracke and Stracke,170,South Oleta
